ES 207 Homework 6 - Modeling Part 1
…
So, take a look at this thing we made, psoil.nested. It is a really handy way of managing data in R. In our last column, we see we have a bunch of tibbles (recall, thats just tidyverse speak for a data frame). Each data frame is a mini data frame of just the data associated with one type of soil depth, one percentile, and one source.

Wow, that is handy, because this nested data frame is doing all of the bookeeping and organizing for you. So you dont have to break your data up into a ton of mini data frames and make sure all the bnames are right, etc etc.

Lets poke around in this weird new thing a little bit more:

#look at the first data frame:
psoil.nested$data[1]

## [[1]]
## # A tibble: 29 x 3
##    site  log_PO4 soiltest
##    <chr>   <dbl>    <dbl>
##  1 BE1    -0.741     1.39
##  2 BE3    -0.959     1.57
##  3 BF1    -0.799     1.63
##  4 BF3    -0.757     1.77
##  5 FR1    -1.55      1.66
##  6 FR3    -1.64      1.64
##  7 HM1    -0.238     2.16
##  8 HM2    -0.568     2.14
##  9 JC1    -0.686     1.88
## 10 JC3    -1.28      1.91
## #  with 19 more rows

#another way to look at the first data frame: 
psoil.nested[[4]][1]

## [[1]]
## # A tibble: 29 x 3
##    site  log_PO4 soiltest
##    <chr>   <dbl>    <dbl>
##  1 BE1    -0.741     1.39
##  2 BE3    -0.959     1.57
##  3 BF1    -0.799     1.63
##  4 BF3    -0.757     1.77
##  5 FR1    -1.55      1.66
##  6 FR3    -1.64      1.64
##  7 HM1    -0.238     2.16
##  8 HM2    -0.568     2.14
##  9 JC1    -0.686     1.88
## 10 JC3    -1.28      1.91
## #  with 19 more rows
…
